Lab 8: hyperparameter-tuning
…
remote_files  <- glue('{root}/camels_{types}.txt')

local_files   <- glue('data/camels_{types}.txt')

walk2(remote_files, local_files, download.file, quiet = TRUE)

camels <- map(local_files, read_delim, show_col_types = FALSE)

camels <- power_full_join(camels ,by = 'gauge_id')

camels_clean <- camels %>% select(where(~!all(is.na(.))))
camels_clean %>% select(gauge_id, gauge_lat, gauge_lon)

# A tibble: 671 × 3
   gauge_id gauge_lat gauge_lon
   <chr>        <dbl>     <dbl>
 1 01013500      47.2     -68.6
 2 01022500      44.6     -67.9
 3 01030500      45.5     -68.3
 4 01031500      45.2     -69.3
 5 01047000      44.9     -70.0
 6 01052500      44.9     -71.1
 7 01054200      44.4     -71.0
 8 01055000      44.6     -70.6
 9 01057000      44.3     -70.5
10 01073000      43.1     -71.0
# ℹ 661 more rows
…
